 @startuml
 namespace TorCtl {
     EventHandler <|-- ConsensusTracker
     EventHandler "0" *-- "*" EventListener
     ConsensusTracker <|-- PathBuilder
     PathBuilder *-- SelectionManager
     SelectionManager *-- PathSelector
     PathSelector "0" *-- "*" PathRestriction
     PathSelector "2" *-- "*" NodeGenerator
     NodeGenerator "0" *-- "*" NodeRestriction
 }
 namespace NetworkScanners {
   package SpeedRacer {}
   package BuildTimes {}
   package SoaT {}
 }
 namespace Statistics {
   package StatsHandler {}
 }
 @enduml